{
  "formatVersion": 1,
  "database": {
    "version": 1,
    "identityHash": "554695fca8f12f56b35d679df556f8b1",
    "entities": [
      {
        "tableName": "contacts",
        "createSql": "CREATE TABLE IF NOT EXISTS `${TABLE_NAME}` (`id` INTEGER NOT NULL, `contact_name` TEXT NOT NULL, PRIMARY KEY(`id`))",
        "fields": [
          {
            "fieldPath": "id",
            "columnName": "id",
            "affinity": "INTEGER",
            "notNull": true
          },
          {
            "fieldPath": "contactName",
            "columnName": "contact_name",
            "affinity": "TEXT",
            "notNull": true
          }
        ],
        "primaryKey": {
          "columnNames": [
            "id"
          ],
          "autoGenerate": false
        },
        "indices": [
          {
            "name": "index_contacts_id",
            "unique": true,
            "columnNames": [
              "id"
            ],
            "orders": [],
            "createSql": "CREATE UNIQUE INDEX IF NOT EXISTS `index_contacts_id` ON `${TABLE_NAME}` (`id`)"
          }
        ],
        "foreignKeys": []
      },
      {
        "tableName": "notes",
        "createSql": "CREATE TABLE IF NOT EXISTS `${TABLE_NAME}` (`contact_id` INTEGER NOT NULL, `note_id` INTEGER PRIMARY KEY AUTOINCREMENT NOT NULL, `note_title` TEXT NOT NULL, `note_text` TEXT NOT NULL, FOREIGN KEY(`contact_id`) REFERENCES `contacts`(`id`) ON UPDATE CASCADE ON DELETE CASCADE )",
        "fields": [
          {
            "fieldPath": "contactId",
            "columnName": "contact_id",
            "affinity": "INTEGER",
            "notNull": true
          },
          {
            "fieldPath": "noteId",
            "columnName": "note_id",
            "affinity": "INTEGER",
            "notNull": true
          },
          {
            "fieldPath": "noteTitle",
            "columnName": "note_title",
            "affinity": "TEXT",
            "notNull": true
          },
          {
            "fieldPath": "noteText",
            "columnName": "note_text",
            "affinity": "TEXT",
            "notNull": true
          }
        ],
        "primaryKey": {
          "columnNames": [
            "note_id"
          ],
          "autoGenerate": true
        },
        "indices": [
          {
            "name": "index_notes_note_id",
            "unique": true,
            "columnNames": [
              "note_id"
            ],
            "orders": [],
            "createSql": "CREATE UNIQUE INDEX IF NOT EXISTS `index_notes_note_id` ON `${TABLE_NAME}` (`note_id`)"
          }
        ],
        "foreignKeys": [
          {
            "table": "contacts",
            "onDelete": "CASCADE",
            "onUpdate": "CASCADE",
            "columns": [
              "contact_id"
            ],
            "referencedColumns": [
              "id"
            ]
          }
        ]
      }
    ],
    "views": [],
    "setupQueries": [
      "CREATE TABLE IF NOT EXISTS room_master_table (id INTEGER PRIMARY KEY,identity_hash TEXT)",
      "INSERT OR REPLACE INTO room_master_table (id,identity_hash) VALUES(42, '554695fca8f12f56b35d679df556f8b1')"
    ]
  }
}